v {xschem version=2.9.9 file_version=1.2 }
G {}
K {}
V {}
S {}
E {}
T {Specs:
50uA drive
High gain ~80dB
High input z
Low CM input voltage} 40 -1140 0 0 0.3 0.3 {}
T {50uA} 770 -1010 0 0 0.4 0.4 {}
T {50uA} 450 -1010 0 0 0.4 0.4 {}
T {200uA} 290 -1010 0 0 0.4 0.4 {}
T {100uA} 1110 -1010 0 0 0.4 0.4 {}
T {50uA} 1410 -1010 0 0 0.4 0.4 {}
T {50uA} 1610 -1010 0 0 0.4 0.4 {}
T {100uA} 1760 -1010 0 0 0.4 0.4 {}
T {200uA} 610 -1010 0 0 0.4 0.4 {}
N 1020 -600 1020 -580 { lab=#net1}
N 1280 -600 1280 -580 { lab=#net1}
N 1140 -930 1160 -930 { lab=vdd}
N 1160 -980 1160 -930 { lab=vdd}
N 1140 -980 1160 -980 { lab=vdd}
N 1140 -980 1140 -960 { lab=vdd}
N 1100 -930 1100 -880 { lab=#net2}
N 940 -550 980 -550 { lab=vin}
N 1020 -550 1040 -550 { lab=#net1}
N 1280 -550 1300 -550 { lab=#net1}
N 1160 -980 1420 -980 { lab=vdd}
N 1800 -700 1860 -700 { lab=vo}
N 1760 -930 1760 -880 { lab=vcomp}
N 1800 -980 1800 -960 { lab=vdd}
N 1800 -930 1820 -930 { lab=vdd}
N 1820 -980 1820 -930 { lab=vdd}
N 1800 -980 1820 -980 { lab=vdd}
N 1800 -240 1800 -220 { lab=vss}
N 1760 -320 1760 -270 { lab=vnb1}
N 1800 -270 1820 -270 { lab=vss}
N 1820 -270 1820 -220 { lab=vss}
N 1800 -220 1820 -220 { lab=vss}
N 940 -640 1240 -640 { lab=vip}
N 1240 -640 1240 -550 { lab=vip}
N 1440 -980 1440 -960 { lab=vdd}
N 1420 -980 1440 -980 { lab=vdd}
N 1640 -980 1640 -960 { lab=vdd}
N 1540 -980 1640 -980 { lab=vdd}
N 1420 -930 1440 -930 { lab=vdd}
N 1420 -980 1420 -930 { lab=vdd}
N 1640 -930 1660 -930 { lab=vdd}
N 1660 -980 1660 -930 { lab=vdd}
N 1640 -980 1660 -980 { lab=vdd}
N 1480 -930 1600 -930 { lab=#net3}
N 1440 -410 1460 -410 { lab=vss}
N 1460 -270 1460 -220 { lab=vss}
N 1440 -220 1460 -220 { lab=vss}
N 1640 -410 1660 -410 { lab=vss}
N 1660 -270 1660 -220 { lab=vss}
N 1640 -220 1660 -220 { lab=vss}
N 1440 -340 1440 -300 { lab=#net4}
N 1640 -360 1640 -300 { lab=#net5}
N 1600 -460 1600 -410 { lab=vnb2}
N 1400 -460 1600 -460 { lab=vnb2}
N 1400 -460 1400 -410 { lab=vnb2}
N 1440 -880 1480 -880 { lab=#net3}
N 1440 -900 1440 -880 { lab=#net3}
N 1480 -930 1480 -880 { lab=#net3}
N 1440 -880 1440 -440 { lab=#net3}
N 800 -380 800 -300 { lab=#net6}
N 800 -410 820 -410 { lab=vss}
N 820 -270 820 -220 { lab=vss}
N 800 -220 820 -220 { lab=vss}
N 800 -270 820 -270 { lab=vss}
N 820 -410 820 -270 { lab=vss}
N 800 -240 800 -220 { lab=vss}
N 660 -220 800 -220 { lab=vss}
N 640 -270 660 -270 { lab=vss}
N 660 -270 660 -220 { lab=vss}
N 640 -220 660 -220 { lab=vss}
N 640 -240 640 -220 { lab=vss}
N 740 -270 760 -270 { lab=vnb1}
N 740 -480 800 -480 { lab=vnb1}
N 640 -320 640 -300 { lab=vnb2}
N 600 -320 600 -270 { lab=vnb2}
N 600 -320 640 -320 { lab=vnb2}
N 640 -980 640 -960 { lab=vdd}
N 500 -980 640 -980 { lab=vdd}
N 800 -980 800 -960 { lab=vdd}
N 660 -980 800 -980 { lab=vdd}
N 480 -980 480 -960 { lab=vdd}
N 480 -930 500 -930 { lab=vdd}
N 500 -980 500 -930 { lab=vdd}
N 480 -980 500 -980 { lab=vdd}
N 640 -930 660 -930 { lab=vdd}
N 660 -980 660 -930 { lab=vdd}
N 640 -980 660 -980 { lab=vdd}
N 800 -930 820 -930 { lab=vdd}
N 820 -980 820 -930 { lab=vdd}
N 800 -980 820 -980 { lab=vdd}
N 600 -880 760 -880 { lab=#net2}
N 760 -930 760 -880 { lab=#net2}
N 480 -900 480 -820 { lab=#net7}
N 600 -930 600 -880 { lab=#net2}
N 800 -480 800 -440 { lab=vnb1}
N 640 -460 640 -320 { lab=vnb2}
N 740 -320 740 -270 { lab=vnb1}
N 820 -220 1440 -220 { lab=vss}
N 740 -480 740 -320 { lab=vnb1}
N 760 -460 1400 -460 { lab=vnb2}
N 740 -320 1400 -320 { lab=vnb1}
N 1640 -880 1640 -440 { lab=vcomp}
N 1760 -880 1860 -880 { lab=vcomp}
N 1040 -600 1040 -550 { lab=#net1}
N 1020 -600 1040 -600 { lab=#net1}
N 1300 -600 1300 -550 { lab=#net1}
N 1280 -600 1300 -600 { lab=#net1}
N 1800 -700 1800 -300 { lab=vo}
N 1600 -320 1760 -320 { lab=vnb1}
N 1660 -980 1800 -980 { lab=vdd}
N 1660 -220 1800 -220 { lab=vss}
N 320 -270 340 -270 { lab=vss}
N 340 -270 340 -220 { lab=vss}
N 320 -220 340 -220 { lab=vss}
N 320 -240 320 -220 { lab=vss}
N 280 -220 320 -220 { lab=vss}
N 160 -240 160 -220 { lab=vss}
N 160 -270 180 -270 { lab=vss}
N 180 -270 180 -220 { lab=vss}
N 160 -220 180 -220 { lab=vss}
N 120 -340 120 -270 { lab=ir50u}
N 120 -340 160 -340 { lab=ir50u}
N 160 -320 160 -300 { lab=ir50u}
N 160 -320 280 -320 { lab=ir50u}
N 280 -320 280 -270 { lab=ir50u}
N 160 -340 160 -320 { lab=ir50u}
N 160 -360 160 -340 { lab=ir50u}
N 340 -980 480 -980 { lab=vdd}
N 100 -220 160 -220 { lab=vss}
N 1640 -900 1640 -880 { lab=vcomp}
N 1020 -520 1020 -340 { lab=#net4}
N 1140 -900 1140 -820 { lab=#net8}
N 1140 -760 1140 -600 { lab=#net1}
N 1040 -600 1140 -600 { lab=#net1}
N 1140 -790 1160 -790 { lab=vdd}
N 1160 -930 1160 -790 { lab=vdd}
N 1100 -790 1100 -740 { lab=#net9}
N 600 -790 600 -740 { lab=#net9}
N 640 -900 640 -820 { lab=#net10}
N 800 -900 800 -820 { lab=#net11}
N 760 -790 760 -740 { lab=#net9}
N 600 -740 760 -740 { lab=#net9}
N 800 -790 820 -790 { lab=vdd}
N 820 -930 820 -790 { lab=vdd}
N 640 -790 660 -790 { lab=vdd}
N 660 -930 660 -790 { lab=vdd}
N 800 -760 800 -480 { lab=vnb1}
N 640 -760 640 -460 { lab=vnb2}
N 500 -930 500 -790 { lab=vdd}
N 480 -790 500 -790 { lab=vdd}
N 480 -720 480 -300 { lab=#net2}
N 420 -930 440 -930 { lab=#net2}
N 420 -880 420 -720 { lab=#net2}
N 420 -720 480 -720 { lab=#net2}
N 480 -760 480 -720 { lab=#net2}
N 420 -880 600 -880 { lab=#net2}
N 420 -930 420 -880 { lab=#net2}
N 320 -930 340 -930 { lab=vdd}
N 340 -980 340 -930 { lab=vdd}
N 320 -980 340 -980 { lab=vdd}
N 320 -980 320 -960 { lab=vdd}
N 280 -930 280 -880 { lab=#net9}
N 280 -880 320 -880 { lab=#net9}
N 320 -900 320 -880 { lab=#net9}
N 440 -740 600 -740 { lab=#net9}
N 320 -880 320 -740 { lab=#net9}
N 320 -740 320 -300 { lab=#net9}
N 440 -790 440 -740 { lab=#net9}
N 320 -740 440 -740 { lab=#net9}
N 760 -460 760 -410 { lab=vnb2}
N 640 -460 760 -460 { lab=vnb2}
N 500 -270 500 -220 { lab=vss}
N 1640 -270 1660 -270 { lab=vss}
N 1660 -410 1660 -270 { lab=vss}
N 1440 -270 1460 -270 { lab=vss}
N 1460 -410 1460 -270 { lab=vss}
N 1440 -240 1440 -220 { lab=vss}
N 1400 -320 1400 -270 { lab=vnb1}
N 1600 -320 1600 -270 { lab=vnb1}
N 1400 -320 1600 -320 { lab=vnb1}
N 1280 -360 1640 -360 { lab=#net5}
N 1280 -520 1280 -360 { lab=#net5}
N 1640 -380 1640 -360 { lab=#net5}
N 1020 -340 1440 -340 { lab=#net4}
N 1440 -380 1440 -340 { lab=#net4}
N 1640 -240 1640 -220 { lab=vss}
N 1600 -220 1640 -220 { lab=vss}
N 500 -220 640 -220 { lab=vss}
N 480 -240 480 -220 { lab=vss}
N 340 -220 480 -220 { lab=vss}
N 480 -220 500 -220 { lab=vss}
N 480 -270 500 -270 { lab=vss}
N 440 -320 440 -270 { lab=ir50u}
N 280 -320 440 -320 { lab=ir50u}
N 100 -980 320 -980 { lab=vdd}
N 1640 -880 1760 -880 { lab=vcomp}
N 1800 -900 1800 -700 { lab=vo}
N 760 -880 1100 -880 { lab=#net2}
N 760 -740 1100 -740 { lab=#net9}
N 980 -980 1140 -980 { lab=vdd}
N 260 -190 280 -190 { lab=vss}
N 280 -220 280 -190 { lab=vss}
N 220 -220 280 -220 { lab=vss}
N 260 -160 280 -160 { lab=vss}
N 280 -190 280 -160 { lab=vss}
N 220 -220 220 -190 { lab=vss}
N 180 -220 220 -220 { lab=vss}
N 920 -1010 920 -980 { lab=vdd}
N 820 -980 920 -980 { lab=vdd}
N 960 -1010 980 -1010 { lab=vdd}
N 980 -1010 980 -980 { lab=vdd}
N 920 -980 980 -980 { lab=vdd}
N 960 -1040 980 -1040 { lab=vdd}
N 980 -1040 980 -1010 { lab=vdd}
N 1580 -190 1600 -190 { lab=vss}
N 1600 -220 1600 -190 { lab=vss}
N 1540 -220 1600 -220 { lab=vss}
N 1580 -160 1600 -160 { lab=vss}
N 1600 -190 1600 -160 { lab=vss}
N 1540 -220 1540 -190 { lab=vss}
N 1460 -220 1540 -220 { lab=vss}
N 1480 -1010 1480 -980 { lab=vdd}
N 1440 -980 1480 -980 { lab=vdd}
N 1520 -1010 1540 -1010 { lab=vdd}
N 1540 -1010 1540 -980 { lab=vdd}
N 1480 -980 1540 -980 { lab=vdd}
N 1520 -1040 1540 -1040 { lab=vdd}
N 1540 -1040 1540 -1010 { lab=vdd}
N 1200 -600 1280 -600 { lab=#net1}
N 1180 -670 1180 -600 { lab=#net1}
N 1140 -600 1180 -600 { lab=#net1}
N 1180 -700 1200 -700 { lab=#net1}
N 1200 -700 1200 -600 { lab=#net1}
N 1180 -600 1200 -600 { lab=#net1}
N 1180 -730 1200 -730 { lab=#net1}
N 1200 -730 1200 -700 { lab=#net1}
C {sky130_fd_pr/nfet_g5v0d10v5.sym} 1420 -270 0 0 {name=M1
L=1
W=48
nf=8
mult=1
ad="'int((nf+1)/2) * W/nf * 0.29'" 
pd="'2*int((nf+1)/2) * (W/nf + 0.29)'"
as="'int((nf+2)/2) * W/nf * 0.29'" 
ps="'2*int((nf+2)/2) * (W/nf + 0.29)'"
nrd="'0.29 / W'" nrs="'0.29 / W'"
sa=0 sb=0 sd=0
model=nfet_g5v0d10v5
spiceprefix=X
}
C {sky130_fd_pr/pfet_g5v0d10v5.sym} 1120 -930 0 0 {name=M2
L=1
W=192
nf=8
mult=1
ad="'int((nf+1)/2) * W/nf * 0.29'" 
pd="'2*int((nf+1)/2) * (W/nf + 0.29)'"
as="'int((nf+2)/2) * W/nf * 0.29'" 
ps="'2*int((nf+2)/2) * (W/nf + 0.29)'"
nrd="'0.29 / W'" nrs="'0.29 / W'"
sa=0 sb=0 sd=0
model=pfet_g5v0d10v5
spiceprefix=X
}
C {sky130_fd_pr/pfet_g5v0d10v5.sym} 1000 -550 0 0 {name=M3
L=2
W=144
nf=12
mult=1
ad="'int((nf+1)/2) * W/nf * 0.29'" 
pd="'2*int((nf+1)/2) * (W/nf + 0.29)'"
as="'int((nf+2)/2) * W/nf * 0.29'" 
ps="'2*int((nf+2)/2) * (W/nf + 0.29)'"
nrd="'0.29 / W'" nrs="'0.29 / W'"
sa=0 sb=0 sd=0
model=pfet_g5v0d10v5
spiceprefix=X
}
C {sky130_fd_pr/pfet_g5v0d10v5.sym} 1260 -550 0 0 {name=M4
L=2
W=144
nf=12
mult=1
ad="'int((nf+1)/2) * W/nf * 0.29'" 
pd="'2*int((nf+1)/2) * (W/nf + 0.29)'"
as="'int((nf+2)/2) * W/nf * 0.29'" 
ps="'2*int((nf+2)/2) * (W/nf + 0.29)'"
nrd="'0.29 / W'" nrs="'0.29 / W'"
sa=0 sb=0 sd=0
model=pfet_g5v0d10v5
spiceprefix=X
}
C {sky130_fd_pr/nfet_g5v0d10v5.sym} 1620 -270 0 0 {name=M5
L=1
W=48
nf=8
mult=1
ad="'int((nf+1)/2) * W/nf * 0.29'" 
pd="'2*int((nf+1)/2) * (W/nf + 0.29)'"
as="'int((nf+2)/2) * W/nf * 0.29'" 
ps="'2*int((nf+2)/2) * (W/nf + 0.29)'"
nrd="'0.29 / W'" nrs="'0.29 / W'"
sa=0 sb=0 sd=0
model=nfet_g5v0d10v5
spiceprefix=X
}
C {devices/iopin.sym} 100 -980 2 0 {name=p7 lab=vdd}
C {devices/iopin.sym} 100 -220 2 0 {name=p1 lab=vss}
C {sky130_fd_pr/pfet_g5v0d10v5.sym} 1780 -930 0 0 {name=M7
L=1
W=96
nf=8
mult=1
ad="'int((nf+1)/2) * W/nf * 0.29'" 
pd="'2*int((nf+1)/2) * (W/nf + 0.29)'"
as="'int((nf+2)/2) * W/nf * 0.29'" 
ps="'2*int((nf+2)/2) * (W/nf + 0.29)'"
nrd="'0.29 / W'" nrs="'0.29 / W'"
sa=0 sb=0 sd=0
model=pfet_g5v0d10v5
spiceprefix=X
}
C {sky130_fd_pr/nfet_g5v0d10v5.sym} 1780 -270 0 0 {name=M8
L=1
W=48
nf=8
mult=1
ad="'int((nf+1)/2) * W/nf * 0.29'" 
pd="'2*int((nf+1)/2) * (W/nf + 0.29)'"
as="'int((nf+2)/2) * W/nf * 0.29'" 
ps="'2*int((nf+2)/2) * (W/nf + 0.29)'"
nrd="'0.29 / W'" nrs="'0.29 / W'"
sa=0 sb=0 sd=0
model=nfet_g5v0d10v5
spiceprefix=X
}
C {sky130_fd_pr/nfet_g5v0d10v5.sym} 1420 -410 0 0 {name=M9
L=1
W=24
nf=4
mult=1
ad="'int((nf+1)/2) * W/nf * 0.29'" 
pd="'2*int((nf+1)/2) * (W/nf + 0.29)'"
as="'int((nf+2)/2) * W/nf * 0.29'" 
ps="'2*int((nf+2)/2) * (W/nf + 0.29)'"
nrd="'0.29 / W'" nrs="'0.29 / W'"
sa=0 sb=0 sd=0
model=nfet_g5v0d10v5
spiceprefix=X
}
C {sky130_fd_pr/nfet_g5v0d10v5.sym} 1620 -410 0 0 {name=M10
L=1
W=24
nf=4
mult=1
ad="'int((nf+1)/2) * W/nf * 0.29'" 
pd="'2*int((nf+1)/2) * (W/nf + 0.29)'"
as="'int((nf+2)/2) * W/nf * 0.29'" 
ps="'2*int((nf+2)/2) * (W/nf + 0.29)'"
nrd="'0.29 / W'" nrs="'0.29 / W'"
sa=0 sb=0 sd=0
model=nfet_g5v0d10v5
spiceprefix=X
}
C {sky130_fd_pr/pfet_g5v0d10v5.sym} 1620 -930 0 0 {name=M11
L=1
W=48
nf=4
mult=1
ad="'int((nf+1)/2) * W/nf * 0.29'" 
pd="'2*int((nf+1)/2) * (W/nf + 0.29)'"
as="'int((nf+2)/2) * W/nf * 0.29'" 
ps="'2*int((nf+2)/2) * (W/nf + 0.29)'"
nrd="'0.29 / W'" nrs="'0.29 / W'"
sa=0 sb=0 sd=0
model=pfet_g5v0d10v5
spiceprefix=X
}
C {sky130_fd_pr/pfet_g5v0d10v5.sym} 1460 -930 0 1 {name=M12
L=1
W=48
nf=4
mult=1
ad="'int((nf+1)/2) * W/nf * 0.29'" 
pd="'2*int((nf+1)/2) * (W/nf + 0.29)'"
as="'int((nf+2)/2) * W/nf * 0.29'" 
ps="'2*int((nf+2)/2) * (W/nf + 0.29)'"
nrd="'0.29 / W'" nrs="'0.29 / W'"
sa=0 sb=0 sd=0
model=pfet_g5v0d10v5
spiceprefix=X
}
C {common/border.sym} 0 0 0 0 {design_name="Bandgap Ref Amp"
revision="00"
author="Tom"
name="border"
}
C {common/sky130libs.sym} 620 -30 0 0 {name=SKY130
only_toplevel=true
value="
.include \\"\\\\$::ANALOG_LIB\\\\\\"
.include \\"\\\\$::PDK_FD_SC_HD\\\\\\"
.lib \\"\\\\$::PDK_FD_PR\\\\ tt\\"
.option wnflag=1
"
}
C {devices/lab_pin.sym} 920 -460 3 0 {name=l7 sig_type=std_logic lab=vnb2}
C {devices/lab_pin.sym} 920 -320 3 0 {name=l8 sig_type=std_logic lab=vnb1}
C {sky130_fd_pr/pfet_g5v0d10v5.sym} 460 -930 0 0 {name=M15
L=1
W=96
nf=4
mult=1
ad="'int((nf+1)/2) * W/nf * 0.29'" 
pd="'2*int((nf+1)/2) * (W/nf + 0.29)'"
as="'int((nf+2)/2) * W/nf * 0.29'" 
ps="'2*int((nf+2)/2) * (W/nf + 0.29)'"
nrd="'0.29 / W'" nrs="'0.29 / W'"
sa=0 sb=0 sd=0
model=pfet_g5v0d10v5
spiceprefix=X
}
C {sky130_fd_pr/pfet_g5v0d10v5.sym} 620 -930 0 0 {name=M16
L=1
W=384
nf=16
mult=1
ad="'int((nf+1)/2) * W/nf * 0.29'" 
pd="'2*int((nf+1)/2) * (W/nf + 0.29)'"
as="'int((nf+2)/2) * W/nf * 0.29'" 
ps="'2*int((nf+2)/2) * (W/nf + 0.29)'"
nrd="'0.29 / W'" nrs="'0.29 / W'"
sa=0 sb=0 sd=0
model=pfet_g5v0d10v5
spiceprefix=X
}
C {sky130_fd_pr/pfet_g5v0d10v5.sym} 780 -930 0 0 {name=M17
L=1
W=96
nf=4
mult=1
ad="'int((nf+1)/2) * W/nf * 0.29'" 
pd="'2*int((nf+1)/2) * (W/nf + 0.29)'"
as="'int((nf+2)/2) * W/nf * 0.29'" 
ps="'2*int((nf+2)/2) * (W/nf + 0.29)'"
nrd="'0.29 / W'" nrs="'0.29 / W'"
sa=0 sb=0 sd=0
model=pfet_g5v0d10v5
spiceprefix=X
}
C {sky130_fd_pr/nfet_g5v0d10v5.sym} 620 -270 0 0 {name=M18
L=1
W=12
nf=2
mult=1
ad="'int((nf+1)/2) * W/nf * 0.29'" 
pd="'2*int((nf+1)/2) * (W/nf + 0.29)'"
as="'int((nf+2)/2) * W/nf * 0.29'" 
ps="'2*int((nf+2)/2) * (W/nf + 0.29)'"
nrd="'0.29 / W'" nrs="'0.29 / W'"
sa=0 sb=0 sd=0
model=nfet_g5v0d10v5
spiceprefix=X
}
C {sky130_fd_pr/nfet_g5v0d10v5.sym} 780 -270 0 0 {name=M19
L=1
W=24
nf=4
mult=1
ad="'int((nf+1)/2) * W/nf * 0.29'" 
pd="'2*int((nf+1)/2) * (W/nf + 0.29)'"
as="'int((nf+2)/2) * W/nf * 0.29'" 
ps="'2*int((nf+2)/2) * (W/nf + 0.29)'"
nrd="'0.29 / W'" nrs="'0.29 / W'"
sa=0 sb=0 sd=0
model=nfet_g5v0d10v5
spiceprefix=X
}
C {sky130_fd_pr/nfet_g5v0d10v5.sym} 780 -410 0 0 {name=M20
L=1
W=24
nf=4
mult=1
ad="'int((nf+1)/2) * W/nf * 0.29'" 
pd="'2*int((nf+1)/2) * (W/nf + 0.29)'"
as="'int((nf+2)/2) * W/nf * 0.29'" 
ps="'2*int((nf+2)/2) * (W/nf + 0.29)'"
nrd="'0.29 / W'" nrs="'0.29 / W'"
sa=0 sb=0 sd=0
model=nfet_g5v0d10v5
spiceprefix=X
}
C {devices/iopin.sym} 1860 -880 0 0 {name=p19 lab=vcomp}
C {devices/iopin.sym} 940 -640 2 0 {name=p20 lab=vip}
C {devices/iopin.sym} 940 -550 2 0 {name=p21 lab=vin}
C {devices/iopin.sym} 1860 -700 0 0 {name=p22 lab=vo}
C {devices/iopin.sym} 160 -360 3 0 {name=p3 lab=ir50u}
C {sky130_fd_pr/nfet_g5v0d10v5.sym} 300 -270 0 0 {name=M6
L=1
W=96
nf=16
mult=1
ad="'int((nf+1)/2) * W/nf * 0.29'" 
pd="'2*int((nf+1)/2) * (W/nf + 0.29)'"
as="'int((nf+2)/2) * W/nf * 0.29'" 
ps="'2*int((nf+2)/2) * (W/nf + 0.29)'"
nrd="'0.29 / W'" nrs="'0.29 / W'"
sa=0 sb=0 sd=0
model=nfet_g5v0d10v5
spiceprefix=X
}
C {sky130_fd_pr/nfet_g5v0d10v5.sym} 140 -270 0 0 {name=M13
L=1
W=24
nf=4
mult=1
ad="'int((nf+1)/2) * W/nf * 0.29'" 
pd="'2*int((nf+1)/2) * (W/nf + 0.29)'"
as="'int((nf+2)/2) * W/nf * 0.29'" 
ps="'2*int((nf+2)/2) * (W/nf + 0.29)'"
nrd="'0.29 / W'" nrs="'0.29 / W'"
sa=0 sb=0 sd=0
model=nfet_g5v0d10v5
spiceprefix=X
}
C {devices/ngspice_probe.sym} 900 -320 0 0 {name=r2}
C {devices/ngspice_probe.sym} 900 -460 0 0 {name=r3}
C {devices/ngspice_probe.sym} 800 -340 0 0 {name=r4}
C {devices/ngspice_probe.sym} 800 -500 0 0 {name=r5}
C {devices/ngspice_probe.sym} 1020 -480 0 0 {name=r6}
C {devices/ngspice_probe.sym} 1280 -480 0 0 {name=r7}
C {devices/ngspice_probe.sym} 1440 -500 0 0 {name=r8}
C {devices/ngspice_probe.sym} 1140 -660 0 0 {name=r11}
C {devices/ngspice_probe.sym} 940 -880 0 0 {name=r12}
C {devices/ngspice_get_value.sym} 320 -300 0 0 {name=r13 node=i(@m.$\{path\}xm6.msky130_fd_pr__nfet_g5v0d10v5[id])
descr="I="}
C {devices/ngspice_get_value.sym} 160 -300 0 0 {name=r14 node=i(@m.$\{path\}xm13.msky130_fd_pr__nfet_g5v0d10v5[id])
descr="I="}
C {devices/ngspice_get_value.sym} 640 -300 0 0 {name=r1 node=i(@m.$\{path\}xm18.msky130_fd_pr__nfet_g5v0d10v5[id])
descr="I="}
C {devices/ngspice_get_value.sym} 800 -440 0 0 {name=r15 node=i(@m.$\{path\}xm20.msky130_fd_pr__nfet_g5v0d10v5[id])
descr="I="}
C {devices/ngspice_get_value.sym} 1440 -300 0 0 {name=r16 node=i(@m.$\{path\}xm1.msky130_fd_pr__nfet_g5v0d10v5[id])
descr="I="}
C {devices/ngspice_get_value.sym} 1640 -300 0 0 {name=r17 node=i(@m.$\{path\}xm5.msky130_fd_pr__nfet_g5v0d10v5[id])
descr="I="}
C {devices/ngspice_get_value.sym} 1440 -440 0 0 {name=r18 node=i(@m.$\{path\}xm9.msky130_fd_pr__nfet_g5v0d10v5[id])
descr="I="}
C {devices/ngspice_get_value.sym} 1640 -440 0 0 {name=r19 node=i(@m.$\{path\}xm10.msky130_fd_pr__nfet_g5v0d10v5[id])
descr="I="}
C {devices/ngspice_get_value.sym} 1800 -300 0 0 {name=r20 node=i(@m.$\{path\}xm8.msky130_fd_pr__nfet_g5v0d10v5[id])
descr="I="}
C {devices/ngspice_get_value.sym} 1140 -900 3 1 {name=r10 node=i(@m.$\{path\}xm2.msky130_fd_pr__pfet_g5v0d10v5[id])
descr="I="}
C {sky130_fd_pr/pfet_g5v0d10v5.sym} 1120 -790 0 0 {name=M14
L=1
W=192
nf=8
mult=1
ad="'int((nf+1)/2) * W/nf * 0.29'" 
pd="'2*int((nf+1)/2) * (W/nf + 0.29)'"
as="'int((nf+2)/2) * W/nf * 0.29'" 
ps="'2*int((nf+2)/2) * (W/nf + 0.29)'"
nrd="'0.29 / W'" nrs="'0.29 / W'"
sa=0 sb=0 sd=0
model=pfet_g5v0d10v5
spiceprefix=X
}
C {sky130_fd_pr/pfet_g5v0d10v5.sym} 620 -790 0 0 {name=M21
L=1
W=384
nf=16
mult=1
ad="'int((nf+1)/2) * W/nf * 0.29'" 
pd="'2*int((nf+1)/2) * (W/nf + 0.29)'"
as="'int((nf+2)/2) * W/nf * 0.29'" 
ps="'2*int((nf+2)/2) * (W/nf + 0.29)'"
nrd="'0.29 / W'" nrs="'0.29 / W'"
sa=0 sb=0 sd=0
model=pfet_g5v0d10v5
spiceprefix=X
}
C {sky130_fd_pr/pfet_g5v0d10v5.sym} 780 -790 0 0 {name=M22
L=1
W=96
nf=4
mult=1
ad="'int((nf+1)/2) * W/nf * 0.29'" 
pd="'2*int((nf+1)/2) * (W/nf + 0.29)'"
as="'int((nf+2)/2) * W/nf * 0.29'" 
ps="'2*int((nf+2)/2) * (W/nf + 0.29)'"
nrd="'0.29 / W'" nrs="'0.29 / W'"
sa=0 sb=0 sd=0
model=pfet_g5v0d10v5
spiceprefix=X
}
C {sky130_fd_pr/pfet_g5v0d10v5.sym} 460 -790 0 0 {name=M23
L=1
W=96
nf=4
mult=1
ad="'int((nf+1)/2) * W/nf * 0.29'" 
pd="'2*int((nf+1)/2) * (W/nf + 0.29)'"
as="'int((nf+2)/2) * W/nf * 0.29'" 
ps="'2*int((nf+2)/2) * (W/nf + 0.29)'"
nrd="'0.29 / W'" nrs="'0.29 / W'"
sa=0 sb=0 sd=0
model=pfet_g5v0d10v5
spiceprefix=X
}
C {sky130_fd_pr/pfet_g5v0d10v5.sym} 300 -930 0 0 {name=M24
L=1
W=48
nf=2
mult=1
ad="'int((nf+1)/2) * W/nf * 0.29'" 
pd="'2*int((nf+1)/2) * (W/nf + 0.29)'"
as="'int((nf+2)/2) * W/nf * 0.29'" 
ps="'2*int((nf+2)/2) * (W/nf + 0.29)'"
nrd="'0.29 / W'" nrs="'0.29 / W'"
sa=0 sb=0 sd=0
model=pfet_g5v0d10v5
spiceprefix=X
}
C {devices/ngspice_probe.sym} 940 -740 0 0 {name=r21}
C {devices/ngspice_probe.sym} 640 -500 0 0 {name=r22}
C {sky130_fd_pr/nfet_g5v0d10v5.sym} 460 -270 0 0 {name=M25
L=1
W=24
nf=4
mult=1
ad="'int((nf+1)/2) * W/nf * 0.29'" 
pd="'2*int((nf+1)/2) * (W/nf + 0.29)'"
as="'int((nf+2)/2) * W/nf * 0.29'" 
ps="'2*int((nf+2)/2) * (W/nf + 0.29)'"
nrd="'0.29 / W'" nrs="'0.29 / W'"
sa=0 sb=0 sd=0
model=nfet_g5v0d10v5
spiceprefix=X
}
C {devices/ngspice_probe.sym} 480 -440 0 0 {name=r24}
C {devices/ngspice_get_value.sym} 480 -300 0 0 {name=r25 node=i(@m.$\{path\}xm25.msky130_fd_pr__nfet_g5v0d10v5[id])
descr="I="}
C {devices/ngspice_probe.sym} 320 -440 0 0 {name=r23}
C {sky130_fd_pr/nfet_g5v0d10v5.sym} 240 -190 0 0 {name=M26
L=1
W=24
nf=4
mult=1
ad="'int((nf+1)/2) * W/nf * 0.29'" 
pd="'2*int((nf+1)/2) * (W/nf + 0.29)'"
as="'int((nf+2)/2) * W/nf * 0.29'" 
ps="'2*int((nf+2)/2) * (W/nf + 0.29)'"
nrd="'0.29 / W'" nrs="'0.29 / W'"
sa=0 sb=0 sd=0
model=nfet_g5v0d10v5
spiceprefix=X
}
C {sky130_fd_pr/pfet_g5v0d10v5.sym} 940 -1010 0 0 {name=M27
L=1
W=96
nf=4
mult=1
ad="'int((nf+1)/2) * W/nf * 0.29'" 
pd="'2*int((nf+1)/2) * (W/nf + 0.29)'"
as="'int((nf+2)/2) * W/nf * 0.29'" 
ps="'2*int((nf+2)/2) * (W/nf + 0.29)'"
nrd="'0.29 / W'" nrs="'0.29 / W'"
sa=0 sb=0 sd=0
model=pfet_g5v0d10v5
spiceprefix=X
}
C {sky130_fd_pr/nfet_g5v0d10v5.sym} 1560 -190 0 0 {name=M28
L=1
W=24
nf=4
mult=1
ad="'int((nf+1)/2) * W/nf * 0.29'" 
pd="'2*int((nf+1)/2) * (W/nf + 0.29)'"
as="'int((nf+2)/2) * W/nf * 0.29'" 
ps="'2*int((nf+2)/2) * (W/nf + 0.29)'"
nrd="'0.29 / W'" nrs="'0.29 / W'"
sa=0 sb=0 sd=0
model=nfet_g5v0d10v5
spiceprefix=X
}
C {sky130_fd_pr/pfet_g5v0d10v5.sym} 1500 -1010 0 0 {name=M29
L=1
W=48
nf=4
mult=1
ad="'int((nf+1)/2) * W/nf * 0.29'" 
pd="'2*int((nf+1)/2) * (W/nf + 0.29)'"
as="'int((nf+2)/2) * W/nf * 0.29'" 
ps="'2*int((nf+2)/2) * (W/nf + 0.29)'"
nrd="'0.29 / W'" nrs="'0.29 / W'"
sa=0 sb=0 sd=0
model=pfet_g5v0d10v5
spiceprefix=X
}
C {sky130_fd_pr/pfet_g5v0d10v5.sym} 1160 -700 0 0 {name=M30
L=2
W=48
nf=4
mult=1
ad="'int((nf+1)/2) * W/nf * 0.29'" 
pd="'2*int((nf+1)/2) * (W/nf + 0.29)'"
as="'int((nf+2)/2) * W/nf * 0.29'" 
ps="'2*int((nf+2)/2) * (W/nf + 0.29)'"
nrd="'0.29 / W'" nrs="'0.29 / W'"
sa=0 sb=0 sd=0
model=pfet_g5v0d10v5
spiceprefix=X
}
C {devices/ngspice_probe.sym} 1260 -980 0 0 {name=r9}
