v {xschem version=2.9.9 file_version=1.2 }
G {}
K {type=subcircuit
format="X@name @@vdd @@vss @@vref @@ir20u @symname"
template="
name=I1
"}
V {}
S {}
E {}
L 4 0 -5 0 5 {}
L 4 -5 0 5 0 {}
L 4 0 -20 0 -10 {}
L 4 0 10 0 20 {}
L 4 10 0 40 -0 {}
B 5 37.5 -2.5 42.5 2.5 {name=vref
dir=inout}
B 5 -2.5 -62.5 2.5 -57.5 {name=vdd
dir=inout}
B 5 -2.5 57.5 2.5 62.5 {name=vss
dir=inout}
B 5 27.5 57.5 32.5 62.5 {name=ir20u
dir=inout}
A 4 0 0 10 0 360 {}
P 4 5 -20 -40 20 -40 20 -20 -20 -20 -20 -40 {}
P 4 5 -20 20 20 20 20 40 -20 40 -20 20 {}
P 4 5 40 -60 -40 -60 -40 60 40 60 40 -60 {}
P 4 4 27.5 52.5 32.5 52.5 30 57.5 27.5 52.5 {fill=true}
T {@name} 45 40 0 0 0.2 0.2 {}
T {@symname} 45 50 0 0 0.2 0.2 {}
T {vdd} -5 -55 0 0 0.1 0.1 {}
T {vss} -5 50 0 0 0.1 0.1 {}
T {PTAT} -12.5 25 0 0 0.2 0.2 {}
T {CTAT} -15 -35 0 0 0.2 0.2 {}
T {ir20u} 22.5 45 0 0 0.1 0.1 {}
T {~1.213V} 12.5 -7.5 0 0 0.1 0.1 {}
